file:///J:/BCUP
127.0.0.1
bsckol3
RWF
COM  
RWF
true
COM3
1500
1000
200
1000
200
127.0.0.1
multiphar401    
172.16.0.6
KAURWALtd10717
HOTELchezlandogros
192.168.1.18
bsckol3
ALG0101
192.168.0.100
HOTELgalaxy
bsckol3
127.0.0.1
PMSS_BETAsa
 INTEGER NOT NULL GENERATED ALWAYS AS IDENTITY (START WITH 1, INCREMENT BY 1)